Summarizing results from the Wald test
…
### Set thresholds
padj.cutoff <- 0.05

We can easily subset the results table to only include those that are significant using the filter() function, but first we will convert the results table into a tibble:

# Create a tibble of results
res_tableOE_tb <- res_tableOE %>%
  data.frame() %>%
  rownames_to_column(var="gene") %>% 
  as_tibble()

res_tableOE_tb

# A tibble: 57,761 × 7
   gene            baseMean log2FoldChange  lfcSE    stat       pvalue      padj
   <chr>              <dbl>          <dbl>  <dbl>   <dbl>        <dbl>     <dbl>
 1 ENSG00000000003 3526.           -0.438  0.0775 -5.66   0.0000000153   4.25e-7
 2 ENSG00000000005   26.2           0.0292 0.441   0.0662 0.947          9.73e-1
 3 ENSG00000000419 1478.            0.384  0.114   3.37   0.000745       4.67e-3
 4 ENSG00000000457  518.            0.229  0.102   2.24   0.0253         8.02e-2
 5 ENSG00000000460 1160.           -0.269  0.0815 -3.30   0.000959       5.76e-3
 6 ENSG00000000938    0.402        -1.80   4.02   -0.446  0.655         NA      
 7 ENSG00000000971   11.4          -0.613  0.777  -0.789  0.430         NA      
 8 ENSG00000001036 2739.           -0.0986 0.0811 -1.22   0.224          3.95e-1
 9 ENSG00000001084 2561.           -0.300  0.0941 -3.19   0.00144        8.09e-3
10 ENSG00000001167 2501.           -0.303  0.0650 -4.65   0.00000330     4.76e-5
# ℹ 57,751 more rows

Now we can subset that table to only keep the significant genes using our pre-defined thresholds:

# Subset the tibble to keep only significant genes
sigOE <- res_tableOE_tb %>%
        dplyr::filter(padj < padj.cutoff)

# Take a quick look at this tibble
sigOE

# A tibble: 4,808 × 7
   gene            baseMean log2FoldChange  lfcSE  stat       pvalue        padj
   <chr>              <dbl>          <dbl>  <dbl> <dbl>        <dbl>       <dbl>
 1 ENSG00000000003    3526.         -0.438 0.0775 -5.66 0.0000000153 0.000000425
 2 ENSG00000000419    1478.          0.384 0.114   3.37 0.000745     0.00467    
 3 ENSG00000000460    1160.         -0.269 0.0815 -3.30 0.000959     0.00576    
 4 ENSG00000001084    2561.         -0.300 0.0941 -3.19 0.00144      0.00809    
 5 ENSG00000001167    2501.         -0.303 0.0650 -4.65 0.00000330   0.0000476  
 6 ENSG00000002016     921.         -0.319 0.117  -2.72 0.00660      0.0280     
 7 ENSG00000002330     715.         -0.457 0.130  -3.52 0.000435     0.00297    
 8 ENSG00000002549    1542.         -0.285 0.0883 -3.23 0.00123      0.00707    
 9 ENSG00000002834    2669.         -0.237 0.0541 -4.37 0.0000125    0.000148   
10 ENSG00000002919     886.         -0.413 0.0861 -4.79 0.00000164   0.0000260  
# ℹ 4,798 more rows
…
# try to extract the same table from the makeContrasts construct
res_tableKO <- results(dds, contrast=contrast[,"MOV10KO_vs_CTRL"], alpha = 0.05)

# save the result object
saveRDS(res_tableKO, "../../out/object/res_tableKO.rds")

res_tableKO_tb <- res_tableKO %>%
  data.frame() %>%
  rownames_to_column(var="gene") %>% 
  as_tibble()

res_tableKO_tb

# A tibble: 57,761 × 7
   gene            baseMean log2FoldChange  lfcSE       stat   pvalue     padj
   <chr>              <dbl>          <dbl>  <dbl>      <dbl>    <dbl>    <dbl>
 1 ENSG00000000003 3526.          0.0196   0.0858  0.229     0.819     0.923  
 2 ENSG00000000005   26.2        -0.561    0.501  -1.12      0.262     0.517  
 3 ENSG00000000419 1478.          0.200    0.127   1.58      0.114     0.314  
 4 ENSG00000000457  518.          0.421    0.111   3.78      0.000155  0.00243
 5 ENSG00000000460 1160.          0.166    0.0888  1.87      0.0619    0.212  
 6 ENSG00000000938    0.402       0.000396 4.42    0.0000894 1.000    NA      
 7 ENSG00000000971   11.4        -1.31     0.889  -1.48      0.140    NA      
 8 ENSG00000001036 2739.          0.100    0.0899  1.12      0.265     0.520  
 9 ENSG00000001084 2561.          0.251    0.104   2.42      0.0157    0.0816 
10 ENSG00000001167 2501.          0.137    0.0714  1.92      0.0552    0.196  
# ℹ 57,751 more rows
…
