Summarizing results from the Wald test
…
Now, if we want our counts colored by sample group, then we need to combine the metadata information with the melted normalized counts data into the same data frame for input to ggplot():

gathered_top20_sigOE <- inner_join(mov10_meta, gathered_top20_sigOE)

Joining with `by = join_by(samplename)`

gathered_top20_sigOE

# A tibble: 160 × 5
   samplename sampletype gene            symbol normalized_counts
   <chr>      <fct>      <chr>           <chr>              <dbl>
 1 Irrel_kd_1 control    ENSG00000089220 PEBP1              7289.
 2 Irrel_kd_1 control    ENSG00000096654 ZNF184              502.
 3 Irrel_kd_1 control    ENSG00000102317 RBM3               8550.
 4 Irrel_kd_1 control    ENSG00000104885 DOT1L              3680.
 5 Irrel_kd_1 control    ENSG00000112972 HMGCS1             9310.
 6 Irrel_kd_1 control    ENSG00000124762 CDKN1A             1639.
 7 Irrel_kd_1 control    ENSG00000126368 NR1D1               594.
 8 Irrel_kd_1 control    ENSG00000143321 HDGF              15278.
 9 Irrel_kd_1 control    ENSG00000155090 KLF10               966.
10 Irrel_kd_1 control    ENSG00000155363 MOV10              1911.
# ℹ 150 more rows

gathered_top20_sigOE_alt <- inner_join(mov10_meta, gathered_top20_sigOE_alt)

Joining with `by = join_by(samplename)`

gathered_top20_sigOE_alt

# A tibble: 160 × 5
   samplename sampletype gene            symbol normalized_counts
   <chr>      <fct>      <chr>           <chr>              <dbl>
 1 Irrel_kd_1 control    ENSG00000089220 PEBP1              7289.
 2 Irrel_kd_1 control    ENSG00000096654 ZNF184              502.
 3 Irrel_kd_1 control    ENSG00000102317 RBM3               8550.
 4 Irrel_kd_1 control    ENSG00000104885 DOT1L              3680.
 5 Irrel_kd_1 control    ENSG00000112972 HMGCS1             9310.
 6 Irrel_kd_1 control    ENSG00000124762 CDKN1A             1639.
 7 Irrel_kd_1 control    ENSG00000126368 NR1D1               594.
 8 Irrel_kd_1 control    ENSG00000143321 HDGF              15278.
 9 Irrel_kd_1 control    ENSG00000155090 KLF10               966.
10 Irrel_kd_1 control    ENSG00000155363 MOV10              1911.
# ℹ 150 more rows
…
